Examples/TestCodes/c432_tb.vcd
$date
	Fri Sep 13 11:52:06 2019
$end
$version
	Icarus Verilog
$end
$timescale
	1s
$end
$scope module c432_tb $end
$var wire 1 ! N432 $end
$var wire 1 " N431 $end
$var wire 1 # N430 $end
$var wire 1 $ N421 $end
$var wire 1 % N370 $end
$var wire 1 & N329 $end
$var wire 1 ' N223 $end
$var reg 1 ( N1 $end
$var reg 1 ) N102 $end
$var reg 1 * N105 $end
$var reg 1 + N108 $end
$var reg 1 , N11 $end
$var reg 1 - N112 $end
$var reg 1 . N115 $end
$var reg 1 / N14 $end
$var reg 1 0 N17 $end
$var reg 1 1 N21 $end
$var reg 1 2 N24 $end
$var reg 1 3 N27 $end
$var reg 1 4 N30 $end
$var reg 1 5 N34 $end
$var reg 1 6 N37 $end
$var reg 1 7 N4 $end
$var reg 1 8 N40 $end
$var reg 1 9 N43 $end
$var reg 1 : N47 $end
$var reg 1 ; N50 $end
$var reg 1 < N53 $end
$var reg 1 = N56 $end
$var reg 1 > N60 $end
$var reg 1 ? N63 $end
$var reg 1 @ N66 $end
$var reg 1 A N69 $end
$var reg 1 B N73 $end
$var reg 1 C N76 $end
$var reg 1 D N79 $end
$var reg 1 E N8 $end
$var reg 1 F N82 $end
$var reg 1 G N86 $end
$var reg 1 H N89 $end
$var reg 1 I N92 $end
$var reg 1 J N95 $end
$var reg 1 K N99 $end
$scope module c432_ $end
$var wire 1 ( N1 $end
$var wire 1 ) N102 $end
$var wire 1 * N105 $end
$var wire 1 + N108 $end
$var wire 1 , N11 $end
$var wire 1 - N112 $end
$var wire 1 . N115 $end
$var wire 1 L N118 $end
$var wire 1 M N119 $end
$var wire 1 N N122 $end
$var wire 1 O N123 $end
$var wire 1 P N126 $end
$var wire 1 Q N127 $end
$var wire 1 R N130 $end
$var wire 1 S N131 $end
$var wire 1 T N134 $end
$var wire 1 U N135 $end
$var wire 1 V N138 $end
$var wire 1 W N139 $end
$var wire 1 / N14 $end
$var wire 1 X N142 $end
$var wire 1 Y N143 $end
$var wire 1 Z N146 $end
$var wire 1 [ N147 $end
$var wire 1 \ N150 $end
$var wire 1 ] N151 $end
$var wire 1 ^ N154 $end
$var wire 1 _ N157 $end
$var wire 1 ` N158 $end
$var wire 1 a N159 $end
$var wire 1 b N162 $end
$var wire 1 c N165 $end
$var wire 1 d N168 $end
$var wire 1 0 N17 $end
$var wire 1 e N171 $end
$var wire 1 f N174 $end
$var wire 1 g N177 $end
$var wire 1 h N180 $end
$var wire 1 i N183 $end
$var wire 1 j N184 $end
$var wire 1 k N185 $end
$var wire 1 l N186 $end
$var wire 1 m N187 $end
$var wire 1 n N188 $end
$var wire 1 o N189 $end
$var wire 1 p N190 $end
$var wire 1 q N191 $end
$var wire 1 r N192 $end
$var wire 1 s N193 $end
$var wire 1 t N194 $end
$var wire 1 u N195 $end
$var wire 1 v N196 $end
$var wire 1 w N197 $end
$var wire 1 x N198 $end
$var wire 1 y N199 $end
$var wire 1 z N203 $end
$var wire 1 1 N21 $end
$var wire 1 { N213 $end
$var wire 1 ' N223 $end
$var wire 1 | N224 $end
$var wire 1 } N227 $end
$var wire 1 ~ N230 $end
$var wire 1 !" N233 $end
$var wire 1 "" N236 $end
$var wire 1 #" N239 $end
$var wire 1 2 N24 $end
$var wire 1 $" N242 $end
$var wire 1 %" N243 $end
$var wire 1 &" N246 $end
$var wire 1 '" N247 $end
$var wire 1 (" N250 $end
$var wire 1 )" N251 $end
$var wire 1 *" N254 $end
$var wire 1 +" N255 $end
$var wire 1 ," N256 $end
$var wire 1 -" N257 $end
$var wire 1 ." N258 $end
$var wire 1 /" N259 $end
$var wire 1 0" N260 $end
$var wire 1 1" N263 $end
$var wire 1 2" N264 $end
$var wire 1 3" N267 $end
$var wire 1 3 N27 $end
$var wire 1 4" N270 $end
$var wire 1 5" N273 $end
$var wire 1 6" N276 $end
$var wire 1 7" N279 $end
$var wire 1 8" N282 $end
$var wire 1 9" N285 $end
$var wire 1 :" N288 $end
$var wire 1 ;" N289 $end
$var wire 1 <" N290 $end
$var wire 1 =" N291 $end
$var wire 1 >" N292 $end
$var wire 1 ?" N293 $end
$var wire 1 @" N294 $end
$var wire 1 A" N295 $end
$var wire 1 B" N296 $end
$var wire 1 4 N30 $end
$var wire 1 C" N300 $end
$var wire 1 D" N301 $end
$var wire 1 E" N302 $end
$var wire 1 F" N303 $end
$var wire 1 G" N304 $end
$var wire 1 H" N305 $end
$var wire 1 I" N306 $end
$var wire 1 J" N307 $end
$var wire 1 K" N308 $end
$var wire 1 L" N309 $end
$var wire 1 M" N319 $end
$var wire 1 & N329 $end
$var wire 1 N" N330 $end
$var wire 1 O" N331 $end
$var wire 1 P" N332 $end
$var wire 1 Q" N333 $end
$var wire 1 R" N334 $end
$var wire 1 S" N335 $end
$var wire 1 T" N336 $end
$var wire 1 U" N337 $end
$var wire 1 V" N338 $end
$var wire 1 W" N339 $end
$var wire 1 5 N34 $end
$var wire 1 X" N340 $end
$var wire 1 Y" N341 $end
$var wire 1 Z" N342 $end
$var wire 1 [" N343 $end
$var wire 1 \" N344 $end
$var wire 1 ]" N345 $end
$var wire 1 ^" N346 $end
$var wire 1 _" N347 $end
$var wire 1 `" N348 $end
$var wire 1 a" N349 $end
$var wire 1 b" N350 $end
$var wire 1 c" N351 $end
$var wire 1 d" N352 $end
$var wire 1 e" N353 $end
$var wire 1 f" N354 $end
$var wire 1 g" N355 $end
$var wire 1 h" N356 $end
$var wire 1 i" N357 $end
$var wire 1 j" N360 $end
$var wire 1 6 N37 $end
$var wire 1 % N370 $end
$var wire 1 k" N371 $end
$var wire 1 l" N372 $end
$var wire 1 m" N373 $end
$var wire 1 n" N374 $end
$var wire 1 o" N375 $end
$var wire 1 p" N376 $end
$var wire 1 q" N377 $end
$var wire 1 r" N378 $end
$var wire 1 s" N379 $end
$var wire 1 t" N380 $end
$var wire 1 u" N381 $end
$var wire 1 v" N386 $end
$var wire 1 w" N393 $end
$var wire 1 x" N399 $end
$var wire 1 7 N4 $end
$var wire 1 8 N40 $end
$var wire 1 y" N404 $end
$var wire 1 z" N407 $end
$var wire 1 {" N411 $end
$var wire 1 |" N414 $end
$var wire 1 }" N415 $end
$var wire 1 ~" N416 $end
$var wire 1 !# N417 $end
$var wire 1 "# N418 $end
$var wire 1 ## N419 $end
$var wire 1 $# N420 $end
$var wire 1 $ N421 $end
$var wire 1 %# N422 $end
$var wire 1 &# N425 $end
$var wire 1 '# N428 $end
$var wire 1 (# N429 $end
$var wire 1 9 N43 $end
$var wire 1 # N430 $end
$var wire 1 " N431 $end
$var wire 1 ! N432 $end
$var wire 1 : N47 $end
$var wire 1 ; N50 $end
$var wire 1 < N53 $end
$var wire 1 = N56 $end
$var wire 1 > N60 $end
$var wire 1 ? N63 $end
$var wire 1 @ N66 $end
$var wire 1 A N69 $end
$var wire 1 B N73 $end
$var wire 1 C N76 $end
$var wire 1 D N79 $end
$var wire 1 E N8 $end
$var wire 1 F N82 $end
$var wire 1 G N86 $end
$var wire 1 H N89 $end
$var wire 1 I N92 $end
$var wire 1 J N95 $end
$var wire 1 K N99 $end
$upscope $end
$upscope $end
$enddefinitions $end
#0
$dumpvars
1(#
1'#
1&#
1%#
0$#
0##
0"#
0!#
1~"
0}"
1|"
1{"
1z"
1y"
1x"
1w"
1v"
1u"
1t"
1s"
1r"
1q"
1p"
1o"
1n"
1m"
1l"
1k"
0j"
1i"
1h"
1g"
1f"
1e"
1d"
1c"
1b"
1a"
1`"
1_"
1^"
1]"
1\"
1["
1Z"
1Y"
1X"
1W"
1V"
1U"
1T"
1S"
1R"
1Q"
1P"
1O"
1N"
0M"
0L"
0K"
0J"
0I"
0H"
0G"
0F"
0E"
0D"
0C"
1B"
1A"
1@"
1?"
1>"
1="
1<"
1;"
1:"
19"
18"
17"
16"
15"
14"
13"
12"
11"
10"
1/"
1."
1-"
1,"
1+"
1*"
1)"
1("
1'"
1&"
1%"
1$"
1#"
1""
1!"
1~
1}
1|
0{
0z
1y
0x
0w
0v
0u
0t
0s
0r
0q
0p
0o
0n
0m
0l
0k
0j
0i
1h
1g
1f
1e
1d
1c
1b
1a
0`
0_
1^
1]
1\
1[
1Z
1Y
1X
1W
1V
1U
1T
1S
1R
1Q
1P
1O
1N
1M
1L
0K
0J
0I
0H
0G
0F
0E
0D
0C
0B
0A
0@
0?
0>
0=
0<
0;
0:
09
08
07
06
05
04
03
02
01
00
0/
0.
0-
0,
0+
0*
0)
0(
0'
0&
0%
0$
0#
0"
0!
$end
#10
0(#
1$
1F"
0O"
0P"
0Q"
0S"
0W"
0["
0X"
0<"
08"
1L"
1M"
1&
0|
0}
0~
0""
0#"
0%"
0)"
0$"
0,"
0-"
0/"
0B"
0U"
1z
1{
1'
0#
1!
0N"
16"
0y
0~"
1%#
10"
1u
1'"
1$#
1q
0"#
1n
1!"
0!#
1_
0}"
0\
0[
0g
0{"
0X
0W
1y"
0V
0S
0c
1w"
0M
1t"
0L
1.
1*
1)
1J
1I
1D
1C
1A
1@
1?
1:
19
13
1/
17
1(
#20
1#
1["
0Y"
0%#
1!
09"
18"
0F"
1Q"
1!#
1(#
1w
1)"
0u
0'"
0$#
0q
1<"
04"
0w"
0]
0h
0|"
1\
1/"
1[
1g
1{"
0Z
0."
0]"
0Y
1W
1V
1,"
0n
0T
0+"
1m
1X"
0V"
0Q
1j
0P
0("
0T"
0O
1`
0N
0&"
1+
0*
0)
0J
1H
1G
1F
0D
0A
0?
1<
1;
0:
18
15
14
03
12
11
10
0/
1,
#30
1"
0u"
1N"
1O"
1P"
1S"
1U"
1W"
1Y"
1T"
1V"
1$
0L"
0M"
0&
0~"
1B"
1#
1!
1["
0)"
1Q"
1%#
1}
19"
1h
1|"
1v
14"
0!"
0!#
0a
0_
0w
1_"
0\
0/"
1^"
0[
1s
1]"
1Z"
0U
0m
1X"
1S
1c
1w"
1l
0R
0*"
0j
0`
1N
1&"
1M
1L
1$"
1-
1)
1K
1J
0G
1>
1=
1:
09
08
16
13
1/
0,
07
0(
#40
0#
1u"
0k"
0l"
0o"
0q"
1j"
1%
0i"
0&#
0e"
0N"
0P"
0Q"
0S"
0W"
0Y"
0["
0R"
0V"
0X"
0Z"
0_"
1L"
1M"
1&
1U"
1H"
0B"
06"
0>"
1""
1O"
1q
1r
1#"
1"#
0d
1x"
0l
02"
1]
1\
1/"
1u
0W
0e
0y"
1n
1T
1+"
0S
1Q
1i
0M
0L
0$"
0.
0+
0)
0K
1A
0<
0;
19
04
01
1E
17
1(
#50
0}"
1t"
0k"
0q"
1#
1j"
1%
0a"
0u"
0i"
1N"
1P"
1Q"
1S"
1W"
1Y"
1["
1R"
1X"
1Z"
1_"
1$
1"
1!
0L"
0M"
0&
1e"
0~"
1&#
1B"
0H"
1U"
0#"
0"#
1D"
1O"
1|
0u
0v
0s
1>"
16"
1e
1y"
0""
0:"
12"
0^
0s"
1[
1Z
1."
1Y
0r
0p"
0q
1\"
1o"
0V
0,"
1U
1d
1V"
1j
1l"
1P
1("
0i
1T"
1L
1$"
1.
0J
0H
0F
1D
1B
0@
1?
0=
05
03
02
11
0(
#60
0p"
1j"
1%
0N"
0P"
0Q"
0S"
0U"
0W"
0Y"
0["
0R"
0V"
0Z"
0^"
0_"
0i"
1L"
1M"
1&
0B"
0a"
1O"
1v
1p
0n
02"
0|
1s"
0\
0/"
0[
1q"
0Z
0."
1X
1-"
1q
0U
0T
0+"
1S
0m"
1i
1k"
1M
1^
0L
0$"
0.
1)
1K
1J
0I
1H
0C
0B
1=
1;
0:
09
18
15
01
0/
07
1(
#70
0v"
1m"
1p"
0j"
0%
1N"
1P"
1Q"
1S"
1U"
1W"
1Y"
1["
1R"
1V"
1_"
1i"
0L"
0M"
0&
1B"
1a"
1O"
1$
0D"
12"
0~"
1x
0q
0p
1m
1~
1:"
0i
0}
1#
1"
0!
1`
0]
1u
1^"
1q"
1]"
0X
0-"
1W
1Z"
1U
1n"
1T
1+"
0S
0Q
0b
0j
1l"
1O
1a
1u"
0M
1+
0K
1I
1G
1C
0A
0>
0=
1<
0;
19
14
13
00
17
#80
0k"
0m"
0o"
0p"
1j"
1%
0c"
0i"
1F"
0<"
0%#
0a"
1!"
1!#
1D"
0~
0x
0u
0v
0c
0w"
0:"
1b
1v"
1}
1!
1]
1[
1t
1Z
1."
0Y
0W
1n
0T
0+"
0m
1R
1*"
1j
0P
0("
0O
0a
0u"
0`
0+
0J
0I
0H
1F
1B
1A
1@
1>
0<
1;
1:
06
03
12
11
10
1/
#90
0k"
0m"
0o"
1j"
1%
0N"
0P"
0Q"
0S"
0U"
0W"
0Y"
0["
0V"
0X"
0Z"
0\"
0i"
1L"
1M"
1&
1c"
1%#
0B"
0a"
0F"
0!#
1~
1O"
0t
1""
1<"
1w"
0b
02"
0Z
0."
1Y
1p"
1W
0U
0d
0n
0n"
1T
1+"
1P
1("
1i
1_
0-
1H
0G
0F
0D
0A
1=
1<
0;
02
01
0E
#100
0g"
1Y"
1J"
0d"
1a"
0D"
08"
0@"
0(#
1G"
1S"
1F"
0O"
1:"
1u
1v
1'"
1$#
1%"
0##
0="
05"
0x"
0<"
0~
12"
0j
0}
1#
0"
1!
0s"
0_"
1\
1/"
0[
0g
0{"
0q"
1Z
1."
0]"
0Y
0f
1z"
0p"
1X
1-"
1q
1\"
0W
1p
1o"
1o
1Z"
1n
1n"
1Q
1b
0P
0("
0i
0T"
1O
1a
1u"
1k"
0_
0R"
1M
1.
1-
0)
1J
1I
0H
1G
1F
1D
0C
0B
1A
0@
0>
0<
04
12
11
00
0/
1E
07
